…
A flat file (e.g., CSV) is a rectangular shaped combination of strings. [Parsing](https://cran.r-project.org/web/packages/readr/vignettes/readr.html) determines the type of each column and turns into a vector of a more specific type. Tidyverse has `parse_` functions (from `readr` package) that are flexible and fast (e.g., `parse_integer()`, `parse_double()`, `parse_logical()`, `parse_datetime()`, `parse_date()`, `parse_time()`, `parse_factor()`, etc).

-   Let's do another practice.

**Challenge**

1.  Why is this data not tidy? (This exercise comes from [`pivot` function vigenette](https://tidyr.tidyverse.org/articles/pivot.html).) Too long or too wide?


```r
billboard
```

```
## # A tibble: 317 × 79
##    artist   track   date.entered   wk1   wk2   wk3   wk4   wk5   wk6   wk7   wk8
##    <chr>    <chr>   <date>       <dbl> <dbl> <dbl> <dbl> <dbl> <dbl> <dbl> <dbl>
##  1 2 Pac    Baby D… 2000-02-26      87    82    72    77    87    94    99    NA
##  2 2Ge+her  The Ha… 2000-09-02      91    87    92    NA    NA    NA    NA    NA
##  3 3 Doors… Krypto… 2000-04-08      81    70    68    67    66    57    54    53
##  4 3 Doors… Loser   2000-10-21      76    76    72    69    67    65    55    59
##  5 504 Boyz Wobble… 2000-04-15      57    34    25    17    17    31    36    49
##  6 98^0     Give M… 2000-08-19      51    39    34    26    26    19     2     2
##  7 A*Teens  Dancin… 2000-07-08      97    97    96    95   100    NA    NA    NA
##  8 Aaliyah  I Don'… 2000-01-29      84    62    51    41    38    35    35    38
##  9 Aaliyah  Try Ag… 2000-03-18      59    53    38    28    21    18    16    14
## 10 Adams, … Open M… 2000-08-26      76    76    74    69    68    67    61    58
## # … with 307 more rows, and 68 more variables: wk9 <dbl>, wk10 <dbl>,
## #   wk11 <dbl>, wk12 <dbl>, wk13 <dbl>, wk14 <dbl>, wk15 <dbl>, wk16 <dbl>,
## #   wk17 <dbl>, wk18 <dbl>, wk19 <dbl>, wk20 <dbl>, wk21 <dbl>, wk22 <dbl>,
## #   wk23 <dbl>, wk24 <dbl>, wk25 <dbl>, wk26 <dbl>, wk27 <dbl>, wk28 <dbl>,
## #   wk29 <dbl>, wk30 <dbl>, wk31 <dbl>, wk32 <dbl>, wk33 <dbl>, wk34 <dbl>,
## #   wk35 <dbl>, wk36 <dbl>, wk37 <dbl>, wk38 <dbl>, wk39 <dbl>, wk40 <dbl>,
## #   wk41 <dbl>, wk42 <dbl>, wk43 <dbl>, wk44 <dbl>, wk45 <dbl>, wk46 <dbl>, …
```
…
```r
# Old way
billboard %>%
  gather(
    key = "week",
    value = "rank",
    starts_with("wk")
  ) %>% # Use regular expressions
  drop_na() # Drop NAs
```

```
## # A tibble: 5,307 × 5
##    artist         track                   date.entered week   rank
##    <chr>          <chr>                   <date>       <chr> <dbl>
##  1 2 Pac          Baby Don't Cry (Keep... 2000-02-26   wk1      87
##  2 2Ge+her        The Hardest Part Of ... 2000-09-02   wk1      91
##  3 3 Doors Down   Kryptonite              2000-04-08   wk1      81
##  4 3 Doors Down   Loser                   2000-10-21   wk1      76
##  5 504 Boyz       Wobble Wobble           2000-04-15   wk1      57
##  6 98^0           Give Me Just One Nig... 2000-08-19   wk1      51
##  7 A*Teens        Dancing Queen           2000-07-08   wk1      97
##  8 Aaliyah        I Don't Wanna           2000-01-29   wk1      84
##  9 Aaliyah        Try Again               2000-03-18   wk1      59
## 10 Adams, Yolanda Open My Heart           2000-08-26   wk1      76
## # … with 5,297 more rows
```
…
```r
# New way
billboard %>%
  pivot_longer(
    cols = starts_with("wk"), # Use regular expressions
    names_to = "week",
    values_to = "rank",
    values_drop_na = TRUE # Drop NAs
  )
```

```
## # A tibble: 5,307 × 5
##    artist  track                   date.entered week   rank
##    <chr>   <chr>                   <date>       <chr> <dbl>
##  1 2 Pac   Baby Don't Cry (Keep... 2000-02-26   wk1      87
##  2 2 Pac   Baby Don't Cry (Keep... 2000-02-26   wk2      82
##  3 2 Pac   Baby Don't Cry (Keep... 2000-02-26   wk3      72
##  4 2 Pac   Baby Don't Cry (Keep... 2000-02-26   wk4      77
##  5 2 Pac   Baby Don't Cry (Keep... 2000-02-26   wk5      87
##  6 2 Pac   Baby Don't Cry (Keep... 2000-02-26   wk6      94
##  7 2 Pac   Baby Don't Cry (Keep... 2000-02-26   wk7      99
##  8 2Ge+her The Hardest Part Of ... 2000-09-02   wk1      91
##  9 2Ge+her The Hardest Part Of ... 2000-09-02   wk2      87
## 10 2Ge+her The Hardest Part Of ... 2000-09-02   wk3      92
## # … with 5,297 more rows
```
…
**Challenge**

-   This exercise comes from [`pivot` function vigenette](https://tidyr.tidyverse.org/articles/pivot.html).

-   Could you make `station` a series of dummy variables using `pivot_wider()`?


```r
fish_encounters
```

```
## # A tibble: 114 × 3
##    fish  station  seen
##    <fct> <fct>   <int>
##  1 4842  Release     1
##  2 4842  I80_1       1
##  3 4842  Lisbon      1
##  4 4842  Rstr        1
##  5 4842  Base_TD     1
##  6 4842  BCE         1
##  7 4842  BCW         1
##  8 4842  BCE2        1
##  9 4842  BCW2        1
## 10 4842  MAE         1
## # … with 104 more rows
```
…
