Data Analysis in R: Lecture Notes
…
# quickly summarize the polity column
summary(country.year$polity)

##    Min. 1st Qu.  Median    Mean 3rd Qu.    Max. 
## -88.000  -7.000   4.000  -1.833   9.000  10.000

# apply NA values (non-dplyr)
country.year$polity[country.year$polity < -10] <- NA

# apply NA values (dplyr)
country.year %>%
  mutate(polity = replace(polity, polity < -10, NA))

## # A tibble: 5,197 x 6
##    ccode country      year polity democ autoc
##    <dbl> <chr>       <dbl>  <dbl> <dbl> <dbl>
##  1   700 Afghanistan  1980     NA   -66   -66
##  2   700 Afghanistan  1981     NA   -66   -66
##  3   700 Afghanistan  1982     NA   -66   -66
##  4   700 Afghanistan  1983     NA   -66   -66
##  5   700 Afghanistan  1984     NA   -66   -66
##  6   700 Afghanistan  1985     NA   -66   -66
##  7   700 Afghanistan  1986     NA   -66   -66
##  8   700 Afghanistan  1987     NA   -66   -66
##  9   700 Afghanistan  1988     NA   -66   -66
## 10   700 Afghanistan  1989     -8     0     8
## #  with 5,187 more rows
…
