Tidy text and preprocessing in R
…
tibble is a class of data frame in the dplyr and tibble packages.

Its better than built-in data frame since it does not convert strings to factors.

# tidy text
MLK_df <- data_frame(line = 1:length(MLK), text = MLK) 

## Warning: `data_frame()` is deprecated, use `tibble()`.
## This warning is displayed once per session.

# see data
MLK_df

## # A tibble: 46 x 2
##     line text                                                              
##    <int> <chr>                                                             
##  1     1 ""                                                                
##  2     2 And so even though we face the difficulties of today and tomorrow
##  3     3 " "                                                               
##  4     4 I have a dream that one day this nation will rise up and live out
##  5     5 " "                                                               
##  6     6 We hold these truths to be self-evident, that all men are created
##  7     7 " "                                                               
##  8     8 I have a dream that one day on the red hills of Georgia, the sons
##  9     9 " "                                                               
## 10    10 I have a dream that one day even the state of Mississippi, a stat
## #  with 36 more rows
…
For unnest_tokens, word is a token output and text is a text input.

The function also strips punctuation, and converts the tokens to lower case. (Check to_lower argument.). This is nice because we want words not uninteresting characters like punctuation.

Also, note that tokenizing is language specific. We only deal with English text data here.

# load data 
inaug <- tidy(data_corpus_inaugural)

inaug %>%
  group_by(President) %>%
  unnest_tokens(word, text)

## # A tibble: 135,562 x 4
## # Groups:   President [35]
##     Year President  FirstName word    
##    <dbl> <chr>      <chr>     <chr>   
##  1  1789 Washington George    fellow  
##  2  1789 Washington George    citizens
##  3  1789 Washington George    of      
##  4  1789 Washington George    the     
##  5  1789 Washington George    senate  
##  6  1789 Washington George    and     
##  7  1789 Washington George    of      
##  8  1789 Washington George    the     
##  9  1789 Washington George    house   
## 10  1789 Washington George    of      
## #  with 135,552 more rows

Using N-grmas

N-gram is a consecutive sequence of words.

# no filtered
inaug %>%
  filter(Year > 1945) %>%
  group_by(President) %>%
  unnest_tokens(bigram, text, token = "ngrams", n = 2) %>%
  count(bigram, sort = TRUE)

## # A tibble: 27,919 x 3
## # Groups:   President [11]
##    President  bigram      n
##    <chr>      <chr>   <int>
##  1 Eisenhower in the     33
##  2 Bush       of our     32
##  3 Bush       we will    31
##  4 Nixon      of the     31
##  5 Bush       of the     30
##  6 Obama      of our     30
##  7 Eisenhower of the     29
##  8 Bush       and the    27
##  9 Eisenhower of our     27
## 10 Nixon      in the     27
## #  with 27,909 more rows
# filtered
inaug_filtered <- inaug %>%
  filter(Year > 1945) %>%
  group_by(President) %>%
  unnest_tokens(bigram, text, token = "ngrams", n = 2) %>%
  separate(bigram, c("word1", "word2"), sep = " ") %>%
  filter(!word1 %in% stop_words$word) %>%
  filter(!word2 %in% stop_words$word) 

## count
inaug_filtered %>%
  unite(bigram, word1, word2, sep = " ") %>%
  count(bigram, sort = TRUE)

## # A tibble: 2,797 x 3
## # Groups:   President [11]
##    President bigram                 n
##    <chr>     <chr>              <int>
##  1 Reagan    federal government     7
##  2 Clinton   fellow americans       6
##  3 Clinton   fellow citizens        6
##  4 Bush      god bless              5
##  5 Truman    free nations           5
##  6 Truman    united nations         5
##  7 Bush      fellow citizens        4
##  8 Clinton   21st century           4
##  9 Reagan    fellow citizens        4
## 10 Reagan    god bless              4
## #  with 2,787 more rows
…
Stop words

Remove common words (something like the) not useful for the analysis

These words are technically called stop words in natural language processing.

Also, remember that removing stop words is not always a good idea. Think about to be or not to be. If you delete not, theres no difference between the two words.

If you want to cut out (assumed unnecessary) parts of the text, you can try either stemming (no ed, ing, or ly in the end) or lemminization (better -> goo).

MLK_df %>%
  unnest_tokens(word, text) %>%
  count(word, sort = TRUE)

## # A tibble: 214 x 2
##    word        n
##    <chr>   <int>
##  1 of         34
##  2 the        31
##  3 and        26
##  4 be         20
##  5 will       17
##  6 to         16
##  7 a          15
##  8 freedom    13
##  9 from       12
## 10 ring       12
## #  with 204 more rows

# load stopwords dataset
data(stopwords) 

## Warning in data(stopwords): data set 'stopwords' not found

# apply stopwords
MLK_df %>%
  unnest_tokens(word, text) %>%
  anti_join(stop_words) %>%  
  count(word, sort = TRUE)

## Joining, by = "word"

## # A tibble: 135 x 2
##    word         n
##    <chr>    <int>
##  1 freedom     13
##  2 ring        12
##  3 day         11
##  4 dream       11
##  5 faith        4
##  6 free         4
##  7 mountain     4
##  8 nation       4
##  9 black        3
## 10 children     3
## #  with 125 more rows
…
# total words
inaug_total <- inaug_words %>%
  group_by(President) %>%
  summarize(total = sum(n))

# merge
inaug_words <- left_join(inaug_words, inaug_total)

## Joining, by = "President"

inaug_words

## # A tibble: 10,258 x 4
##    President  word      n total
##    <chr>      <chr> <int> <int>
##  1 Bush       the     316  5976
##  2 Bush       and     288  5976
##  3 Eisenhower the     285  4118
##  4 Reagan     the     252  5007
##  5 Obama      the     239  4505
##  6 Eisenhower of      238  4118
##  7 Bush       of      235  5976
##  8 Clinton    the     222  3758
##  9 Nixon      the     219  3929
## 10 Reagan     and     202  5007
## #  with 10,248 more rows
…
