Chapter 7 High-dimensional data | Computational Thinking for Social Scientists
…
7.6.1.3 PCA analysis

pca_res <- pca_recipe %>% 
  step_pca(all_predictors(), 
           id = "pca") %>% # id argument identifies each PCA step 
  prep()

pca_res %>%
  tidy(id = "pca") 

## # A tibble: 196 x 4
##    terms        value component id   
##    <chr>        <dbl> <chr>     <chr>
##  1 age      -0.00101  PC1       pca  
##  2 sex       0.216    PC1       pca  
##  3 cp        0.321    PC1       pca  
##  4 trestbps  0.00118  PC1       pca  
##  5 chol     -0.000292 PC1       pca  
##  6 fbs       0.0468   PC1       pca  
##  7 restecg   0.166    PC1       pca  
##  8 thalach   0.0137   PC1       pca  
##  9 exang     0.0962   PC1       pca  
## 10 oldpeak  -0.00863  PC1       pca  
## # … with 186 more rows
…
