4.5 Manipulating (dplyr) | Computational Thinking for Social Scientists
…
# Filter brown and black hair_color

starwars %>%
  dplyr::filter(hair_color %in% c("black", "brown"))

## # A tibble: 31 × 14
##    name     height  mass hair_color skin_color eye_color birth_year sex   gender
##    <chr>     <int> <dbl> <chr>      <chr>      <chr>          <dbl> <chr> <chr> 
##  1 Leia Or…    150  49   brown      light      brown           19   fema… femin…
##  2 Beru Wh…    165  75   brown      light      blue            47   fema… femin…
##  3 Biggs D…    183  84   black      light      brown           24   male  mascu…
##  4 Chewbac…    228 112   brown      unknown    blue           200   male  mascu…
##  5 Han Solo    180  80   brown      fair       brown           29   male  mascu…
##  6 Wedge A…    170  77   brown      fair       hazel           21   male  mascu…
##  7 Jek Ton…    180 110   brown      fair       blue            NA   <NA>  <NA>  
##  8 Boba Fe…    183  78.2 black      fair       brown           31.5 male  mascu…
##  9 Lando C…    177  79   black      dark       brown           31   male  mascu…
## 10 Arvel C…     NA  NA   brown      fair       brown           NA   male  mascu…
## # ℹ 21 more rows
## # ℹ 5 more variables: homeworld <chr>, species <chr>, films <list>,
## #   vehicles <list>, starships <list>
…
4.5.3 Subset variables (columns)

names(msleep)

##  [1] "name"         "genus"        "vore"         "order"        "conservation"
##  [6] "sleep_total"  "sleep_rem"    "sleep_cycle"  "awake"        "brainwt"     
## [11] "bodywt"

Select only numeric columns

# Only numeric
msleep %>%
  dplyr::select(where(is.numeric))

## # A tibble: 83 × 6
##    sleep_total sleep_rem sleep_cycle awake  brainwt  bodywt
##          <dbl>     <dbl>       <dbl> <dbl>    <dbl>   <dbl>
##  1        12.1      NA        NA      11.9 NA        50    
##  2        17         1.8      NA       7    0.0155    0.48 
##  3        14.4       2.4      NA       9.6 NA         1.35 
##  4        14.9       2.3       0.133   9.1  0.00029   0.019
##  5         4         0.7       0.667  20    0.423   600    
##  6        14.4       2.2       0.767   9.6 NA         3.85 
##  7         8.7       1.4       0.383  15.3 NA        20.5  
##  8         7        NA        NA      17   NA         0.045
##  9        10.1       2.9       0.333  13.9  0.07     14    
## 10         3        NA        NA      21    0.0982   14.8  
## # ℹ 73 more rows

Challenge

Use select(where()) to find only non-numeric columns

Select the columns that include “sleep” in their names

msleep %>%
  dplyr::select(contains("sleep"))

## # A tibble: 83 × 3
##    sleep_total sleep_rem sleep_cycle
##          <dbl>     <dbl>       <dbl>
##  1        12.1      NA        NA    
##  2        17         1.8      NA    
##  3        14.4       2.4      NA    
##  4        14.9       2.3       0.133
##  5         4         0.7       0.667
##  6        14.4       2.2       0.767
##  7         8.7       1.4       0.383
##  8         7        NA        NA    
##  9        10.1       2.9       0.333
## 10         3        NA        NA    
## # ℹ 73 more rows

Select the columns that include either “sleep” or “wt” in their names

Basic R way

grepl is one of the R base pattern matching functions.

msleep[grepl("sleep|wt", names(msleep))]

## # A tibble: 83 × 5
##    sleep_total sleep_rem sleep_cycle  brainwt  bodywt
##          <dbl>     <dbl>       <dbl>    <dbl>   <dbl>
##  1        12.1      NA        NA     NA        50    
##  2        17         1.8      NA      0.0155    0.48 
##  3        14.4       2.4      NA     NA         1.35 
##  4        14.9       2.3       0.133  0.00029   0.019
##  5         4         0.7       0.667  0.423   600    
##  6        14.4       2.2       0.767 NA         3.85 
##  7         8.7       1.4       0.383 NA        20.5  
##  8         7        NA        NA     NA         0.045
##  9        10.1       2.9       0.333  0.07     14    
## 10         3        NA        NA      0.0982   14.8  
## # ℹ 73 more rows

Challenge

Use select(match()) to find columns whose names include either “sleep” or “wt”.

Select the columns that start with “b”

msleep %>%
  dplyr::select(starts_with("b"))

## # A tibble: 83 × 2
##     brainwt  bodywt
##       <dbl>   <dbl>
##  1 NA        50    
##  2  0.0155    0.48 
##  3 NA         1.35 
##  4  0.00029   0.019
##  5  0.423   600    
##  6 NA         3.85 
##  7 NA        20.5  
##  8 NA         0.045
##  9  0.07     14    
## 10  0.0982   14.8  
## # ℹ 73 more rows

Select the columns that end with “wt”

msleep %>%
  dplyr::select(ends_with("wt"))

## # A tibble: 83 × 2
##     brainwt  bodywt
##       <dbl>   <dbl>
##  1 NA        50    
##  2  0.0155    0.48 
##  3 NA         1.35 
##  4  0.00029   0.019
##  5  0.423   600    
##  6 NA         3.85 
##  7 NA        20.5  
##  8 NA         0.045
##  9  0.07     14    
## 10  0.0982   14.8  
## # ℹ 73 more rows

Select the columns using both beginning and end string patterns

The key idea is you can use Boolean operators (!, &, |)to combine different string pattern matching statements.

msleep %>%
  dplyr::select(starts_with("b") & ends_with("wt"))

## # A tibble: 83 × 2
##     brainwt  bodywt
##       <dbl>   <dbl>
##  1 NA        50    
##  2  0.0155    0.48 
##  3 NA         1.35 
##  4  0.00029   0.019
##  5  0.423   600    
##  6 NA         3.85 
##  7 NA        20.5  
##  8 NA         0.045
##  9  0.07     14    
## 10  0.0982   14.8  
## # ℹ 73 more rows

Select the order and move it before everything

# By specifying a column
msleep %>%
  dplyr::select(order, everything())

## # A tibble: 83 × 11
##    order  name  genus vore  conservation sleep_total sleep_rem sleep_cycle awake
##    <chr>  <chr> <chr> <chr> <chr>              <dbl>     <dbl>       <dbl> <dbl>
##  1 Carni… Chee… Acin… carni lc                  12.1      NA        NA      11.9
##  2 Prima… Owl … Aotus omni  <NA>                17         1.8      NA       7  
##  3 Roden… Moun… Aplo… herbi nt                  14.4       2.4      NA       9.6
##  4 Soric… Grea… Blar… omni  lc                  14.9       2.3       0.133   9.1
##  5 Artio… Cow   Bos   herbi domesticated         4         0.7       0.667  20  
##  6 Pilosa Thre… Brad… herbi <NA>                14.4       2.2       0.767   9.6
##  7 Carni… Nort… Call… carni vu                   8.7       1.4       0.383  15.3
##  8 Roden… Vesp… Calo… <NA>  <NA>                 7        NA        NA      17  
##  9 Carni… Dog   Canis carni domesticated        10.1       2.9       0.333  13.9
## 10 Artio… Roe … Capr… herbi lc                   3        NA        NA      21  
## # ℹ 73 more rows
## # ℹ 2 more variables: brainwt <dbl>, bodywt <dbl>
…
## [1] "name"  "order"

Select the variables named in character + number pattern

msleep$week8 <- NA

msleep$week12 <- NA

msleep$week_extra <- 0

msleep %>%
  dplyr::select(num_range("week", c(1:12)))

## # A tibble: 83 × 2
##    week8 week12
##    <lgl> <lgl> 
##  1 NA    NA    
##  2 NA    NA    
##  3 NA    NA    
##  4 NA    NA    
##  5 NA    NA    
##  6 NA    NA    
##  7 NA    NA    
##  8 NA    NA    
##  9 NA    NA    
## 10 NA    NA    
## # ℹ 73 more rows
…
add_tally() = mutate(n = n())

Challenge

What does n in the below example represent?

gapminder %>%
  dplyr::select(continent, country) %>%
  add_tally()

## # A tibble: 1,704 × 3
##    continent country         n
##    <fct>     <fct>       <int>
##  1 Asia      Afghanistan  1704
##  2 Asia      Afghanistan  1704
##  3 Asia      Afghanistan  1704
##  4 Asia      Afghanistan  1704
##  5 Asia      Afghanistan  1704
##  6 Asia      Afghanistan  1704
##  7 Asia      Afghanistan  1704
##  8 Asia      Afghanistan  1704
##  9 Asia      Afghanistan  1704
## 10 Asia      Afghanistan  1704
## # ℹ 1,694 more rows

add_count

Add count as a column.

# Add count as a column
gapminder %>%
  group_by(continent) %>%
  add_count(year)

## # A tibble: 1,704 × 7
## # Groups:   continent [5]
##    country     continent  year lifeExp      pop gdpPercap     n
##    <fct>       <fct>     <int>   <dbl>    <int>     <dbl> <int>
##  1 Afghanistan Asia       1952    28.8  8425333      779.    33
##  2 Afghanistan Asia       1957    30.3  9240934      821.    33
##  3 Afghanistan Asia       1962    32.0 10267083      853.    33
##  4 Afghanistan Asia       1967    34.0 11537966      836.    33
##  5 Afghanistan Asia       1972    36.1 13079460      740.    33
##  6 Afghanistan Asia       1977    38.4 14880372      786.    33
##  7 Afghanistan Asia       1982    39.9 12881816      978.    33
##  8 Afghanistan Asia       1987    40.8 13867957      852.    33
##  9 Afghanistan Asia       1992    41.7 16317921      649.    33
## 10 Afghanistan Asia       1997    41.8 22227415      635.    33
## # ℹ 1,694 more rows

Challenge

Do cases 1 and 2 in the below code chunk produce the same outputs? If so, why?

# Case 1
gapminder %>%
  group_by(continent, year) %>%
  count()

## # A tibble: 60 × 3
## # Groups:   continent, year [60]
##    continent  year     n
##    <fct>     <int> <int>
##  1 Africa     1952    52
##  2 Africa     1957    52
##  3 Africa     1962    52
##  4 Africa     1967    52
##  5 Africa     1972    52
##  6 Africa     1977    52
##  7 Africa     1982    52
##  8 Africa     1987    52
##  9 Africa     1992    52
## 10 Africa     1997    52
## # ℹ 50 more rows

# Case 2
gapminder %>%
  group_by(continent) %>%
  count(year)

## # A tibble: 60 × 3
## # Groups:   continent [5]
##    continent  year     n
##    <fct>     <int> <int>
##  1 Africa     1952    52
##  2 Africa     1957    52
##  3 Africa     1962    52
##  4 Africa     1967    52
##  5 Africa     1972    52
##  6 Africa     1977    52
##  7 Africa     1982    52
##  8 Africa     1987    52
##  9 Africa     1992    52
## 10 Africa     1997    52
## # ℹ 50 more rows
…
## # A tibble: 1 × 1
##   lifeExp
##     <dbl>
## 1    71.9

wide_gapminder %>%
  summarise(across(contains("A", ignore.case = FALSE)))

## Warning: Returning more (or less) than 1 row per `summarise()` group was deprecated in dplyr 1.1.0.
## ℹ Please use `reframe()` instead.
## ℹ When switching from `summarise()` to `reframe()`, remember that `reframe()` always returns an ungrouped data frame and adjust accordingly.
## Call `lifecycle::last_lifecycle_warnings()` to see where this warning was generated.

## # A tibble: 360 × 2
##    Albania Austria
##      <dbl>   <dbl>
##  1   1601.      NA
##  2   1942.      NA
##  3   2313.      NA
##  4   2760.      NA
##  5   3313.      NA
##  6   3533.      NA
##  7   3631.      NA
##  8   3739.      NA
##  9   2497.      NA
## 10   3193.      NA
## # ℹ 350 more rows
…
Anti Join

anti_join() does the opposite. Exclude the rows that were matched between the two tables. A great technique to filter stopwords when you do computational text analysis.

flights %>%
  anti_join(planes, by = "tailnum") %>%
  count(tailnum, sort = TRUE)

## # A tibble: 722 × 2
##    tailnum     n
##    <chr>   <int>
##  1 <NA>     2512
##  2 N725MQ    575
##  3 N722MQ    513
##  4 N723MQ    507
##  5 N713MQ    483
##  6 N735MQ    396
##  7 N0EGMQ    371
##  8 N534MQ    364
##  9 N542MQ    363
## 10 N531MQ    349
## # ℹ 712 more rows
