4.6 Modeling (broom) | Computational Thinking for Social Scientists
…
# Pull p.value
glanced$glance %>%
  pluck(1) %>%
  pull(p.value)

##        value 
## 9.835213e-08

unnest() unpacks the list objects stored in the glanced column

glanced %>%
  unnest(glance) %>%
  arrange(r.squared)

## # A tibble: 142 × 16
## # Groups:   country, continent [142]
##    country     continent data     models r.squared adj.r.squared sigma statistic
##    <fct>       <fct>     <list>   <list>     <dbl>         <dbl> <dbl>     <dbl>
##  1 Rwanda      Africa    <tibble> <lm>      0.0172      -0.0811   6.56     0.175
##  2 Botswana    Africa    <tibble> <lm>      0.0340      -0.0626   6.11     0.352
##  3 Zimbabwe    Africa    <tibble> <lm>      0.0562      -0.0381   7.21     0.596
##  4 Zambia      Africa    <tibble> <lm>      0.0598      -0.0342   4.53     0.636
##  5 Swaziland   Africa    <tibble> <lm>      0.0682      -0.0250   6.64     0.732
##  6 Lesotho     Africa    <tibble> <lm>      0.0849      -0.00666  5.93     0.927
##  7 Cote d'Ivo… Africa    <tibble> <lm>      0.283        0.212    3.93     3.95 
##  8 South Afri… Africa    <tibble> <lm>      0.312        0.244    4.74     4.54 
##  9 Uganda      Africa    <tibble> <lm>      0.342        0.276    3.19     5.20 
## 10 Congo, Dem… Africa    <tibble> <lm>      0.348        0.283    2.43     5.34 
## # ℹ 132 more rows
## # ℹ 8 more variables: p.value <dbl>, df <dbl>, logLik <dbl>, AIC <dbl>,
## #   BIC <dbl>, deviance <dbl>, df.residual <int>, nobs <int>
…
