Chapter 7 Semi-structured data | Computational Thinking for Social Scientists
…
# Get the values associated with the keys 
worldbank %>% 
  as.tbl_json() %>% # Turn JSON into tbl_json object 
  enter_object("project_name") %>% # Enter the objects 
  append_values_string() %>% # Append the values 
  as_tibble() # To reduce the size of the file 

## # A tibble: 500 × 2
##    document.id string                                                           
##          <int> <chr>                                                            
##  1           1 Ethiopia General Education Quality Improvement Project II        
##  2           2 TN: DTF Social Protection Reforms Support                        
##  3           3 Tuvalu Aviation Investment Project - Additional Financing        
##  4           4 Gov't and Civil Society Organization Partnership                 
##  5           5 Second Private Sector Competitiveness and Economic Diversificati…
##  6           6 Additional Financing for Cash Transfers for Orphans and Vulnerab…
##  7           7 National Highways Interconnectivity Improvement Project          
##  8           8 China Renewable Energy Scale-Up Program Phase II                 
##  9           9 Rajasthan Road Sector Modernization Project                      
## 10          10 MA Accountability and Transparency DPL                           
## # ℹ 490 more rows
…
