Chapter 4 Tidy data and its friends | Computational Thinking for Social Scientists
…
parse_number("reply1994")

## [1] 1994

A flat file (e.g., CSV) is a rectangular shaped combination of strings. Parsing determines the type of each column and turns into a vector of a more specific type. Tidyverse has parse_ functions (from readr package) that are flexible and fast (e.g., parse_integer(), parse_double(), parse_logical(), parse_datetime(), parse_date(), parse_time(), parse_factor(), etc).

Let’s do another practice.

Challenge

Why is this data not tidy? (This exercise comes from pivot function vigenette.) Too long or too wide?

billboard

## # A tibble: 317 × 79
##    artist   track   date.entered   wk1   wk2   wk3   wk4   wk5   wk6   wk7   wk8
##    <chr>    <chr>   <date>       <dbl> <dbl> <dbl> <dbl> <dbl> <dbl> <dbl> <dbl>
##  1 2 Pac    Baby D… 2000-02-26      87    82    72    77    87    94    99    NA
##  2 2Ge+her  The Ha… 2000-09-02      91    87    92    NA    NA    NA    NA    NA
##  3 3 Doors… Krypto… 2000-04-08      81    70    68    67    66    57    54    53
##  4 3 Doors… Loser   2000-10-21      76    76    72    69    67    65    55    59
##  5 504 Boyz Wobble… 2000-04-15      57    34    25    17    17    31    36    49
##  6 98^0     Give M… 2000-08-19      51    39    34    26    26    19     2     2
##  7 A*Teens  Dancin… 2000-07-08      97    97    96    95   100    NA    NA    NA
##  8 Aaliyah  I Don'… 2000-01-29      84    62    51    41    38    35    35    38
##  9 Aaliyah  Try Ag… 2000-03-18      59    53    38    28    21    18    16    14
## 10 Adams, … Open M… 2000-08-26      76    76    74    69    68    67    61    58
## # … with 307 more rows, and 68 more variables: wk9 <dbl>, wk10 <dbl>,
## #   wk11 <dbl>, wk12 <dbl>, wk13 <dbl>, wk14 <dbl>, wk15 <dbl>, wk16 <dbl>,
## #   wk17 <dbl>, wk18 <dbl>, wk19 <dbl>, wk20 <dbl>, wk21 <dbl>, wk22 <dbl>,
## #   wk23 <dbl>, wk24 <dbl>, wk25 <dbl>, wk26 <dbl>, wk27 <dbl>, wk28 <dbl>,
## #   wk29 <dbl>, wk30 <dbl>, wk31 <dbl>, wk32 <dbl>, wk33 <dbl>, wk34 <dbl>,
## #   wk35 <dbl>, wk36 <dbl>, wk37 <dbl>, wk38 <dbl>, wk39 <dbl>, wk40 <dbl>,
## #   wk41 <dbl>, wk42 <dbl>, wk43 <dbl>, wk44 <dbl>, wk45 <dbl>, wk46 <dbl>, …

How can you fix it? Which pivot?

# Old way
billboard %>%
  gather(
    key = "week",
    value = "rank",
    starts_with("wk")
  ) %>% # Use regular expressions
  drop_na() # Drop NAs

## # A tibble: 5,307 × 5
##    artist         track                   date.entered week   rank
##    <chr>          <chr>                   <date>       <chr> <dbl>
##  1 2 Pac          Baby Don't Cry (Keep... 2000-02-26   wk1      87
##  2 2Ge+her        The Hardest Part Of ... 2000-09-02   wk1      91
##  3 3 Doors Down   Kryptonite              2000-04-08   wk1      81
##  4 3 Doors Down   Loser                   2000-10-21   wk1      76
##  5 504 Boyz       Wobble Wobble           2000-04-15   wk1      57
##  6 98^0           Give Me Just One Nig... 2000-08-19   wk1      51
##  7 A*Teens        Dancing Queen           2000-07-08   wk1      97
##  8 Aaliyah        I Don't Wanna           2000-01-29   wk1      84
##  9 Aaliyah        Try Again               2000-03-18   wk1      59
## 10 Adams, Yolanda Open My Heart           2000-08-26   wk1      76
## # … with 5,297 more rows

Note that pivot_longer() is more versatile than gather().

# New way
billboard %>%
  pivot_longer(
    cols = starts_with("wk"), # Use regular expressions
    names_to = "week",
    values_to = "rank",
    values_drop_na = TRUE # Drop NAs
  )

## # A tibble: 5,307 × 5
##    artist  track                   date.entered week   rank
##    <chr>   <chr>                   <date>       <chr> <dbl>
##  1 2 Pac   Baby Don't Cry (Keep... 2000-02-26   wk1      87
##  2 2 Pac   Baby Don't Cry (Keep... 2000-02-26   wk2      82
##  3 2 Pac   Baby Don't Cry (Keep... 2000-02-26   wk3      72
##  4 2 Pac   Baby Don't Cry (Keep... 2000-02-26   wk4      77
##  5 2 Pac   Baby Don't Cry (Keep... 2000-02-26   wk5      87
##  6 2 Pac   Baby Don't Cry (Keep... 2000-02-26   wk6      94
##  7 2 Pac   Baby Don't Cry (Keep... 2000-02-26   wk7      99
##  8 2Ge+her The Hardest Part Of ... 2000-09-02   wk1      91
##  9 2Ge+her The Hardest Part Of ... 2000-09-02   wk2      87
## 10 2Ge+her The Hardest Part Of ... 2000-09-02   wk3      92
## # … with 5,297 more rows
…
Challenge

This exercise comes from pivot function vigenette.

Could you make station a series of dummy variables using pivot_wider()?

fish_encounters

## # A tibble: 114 × 3
##    fish  station  seen
##    <fct> <fct>   <int>
##  1 4842  Release     1
##  2 4842  I80_1       1
##  3 4842  Lisbon      1
##  4 4842  Rstr        1
##  5 4842  Base_TD     1
##  6 4842  BCE         1
##  7 4842  BCW         1
##  8 4842  BCE2        1
##  9 4842  BCW2        1
## 10 4842  MAE         1
## # … with 104 more rows
…
# Filter brown and black hair_color

starwars %>%
  filter(hair_color %in% c("black", "brown"))

## # A tibble: 31 × 14
##    name     height  mass hair_color skin_color eye_color birth_year sex   gender
##    <chr>     <int> <dbl> <chr>      <chr>      <chr>          <dbl> <chr> <chr> 
##  1 Leia Or…    150  49   brown      light      brown           19   fema… femin…
##  2 Beru Wh…    165  75   brown      light      blue            47   fema… femin…
##  3 Biggs D…    183  84   black      light      brown           24   male  mascu…
##  4 Chewbac…    228 112   brown      unknown    blue           200   male  mascu…
##  5 Han Solo    180  80   brown      fair       brown           29   male  mascu…
##  6 Wedge A…    170  77   brown      fair       hazel           21   male  mascu…
##  7 Jek Ton…    180 110   brown      fair       blue            NA   male  mascu…
##  8 Boba Fe…    183  78.2 black      fair       brown           31.5 male  mascu…
##  9 Lando C…    177  79   black      dark       brown           31   male  mascu…
## 10 Arvel C…     NA  NA   brown      fair       brown           NA   male  mascu…
## # … with 21 more rows, and 5 more variables: homeworld <chr>, species <chr>,
## #   films <list>, vehicles <list>, starships <list>
…
4.8.3 Subset variables (columns)

names(msleep)

##  [1] "name"         "genus"        "vore"         "order"        "conservation"
##  [6] "sleep_total"  "sleep_rem"    "sleep_cycle"  "awake"        "brainwt"     
## [11] "bodywt"

Select only numeric columns

# Only numeric
msleep %>%
  dplyr::select(where(is.numeric))

## # A tibble: 83 × 6
##    sleep_total sleep_rem sleep_cycle awake  brainwt  bodywt
##          <dbl>     <dbl>       <dbl> <dbl>    <dbl>   <dbl>
##  1        12.1      NA        NA      11.9 NA        50    
##  2        17         1.8      NA       7    0.0155    0.48 
##  3        14.4       2.4      NA       9.6 NA         1.35 
##  4        14.9       2.3       0.133   9.1  0.00029   0.019
##  5         4         0.7       0.667  20    0.423   600    
##  6        14.4       2.2       0.767   9.6 NA         3.85 
##  7         8.7       1.4       0.383  15.3 NA        20.5  
##  8         7        NA        NA      17   NA         0.045
##  9        10.1       2.9       0.333  13.9  0.07     14    
## 10         3        NA        NA      21    0.0982   14.8  
## # … with 73 more rows

Challenge

Use select(where()) to find only non-numeric columns

Select the columns that include “sleep” in their names

msleep %>%
  dplyr::select(contains("sleep"))

## # A tibble: 83 × 3
##    sleep_total sleep_rem sleep_cycle
##          <dbl>     <dbl>       <dbl>
##  1        12.1      NA        NA    
##  2        17         1.8      NA    
##  3        14.4       2.4      NA    
##  4        14.9       2.3       0.133
##  5         4         0.7       0.667
##  6        14.4       2.2       0.767
##  7         8.7       1.4       0.383
##  8         7        NA        NA    
##  9        10.1       2.9       0.333
## 10         3        NA        NA    
## # … with 73 more rows

Select the columns that include either “sleep” or “wt” in their names

Basic R way

grepl is one of the R base pattern matching functions.

msleep[grepl("sleep|wt", names(msleep))]

## # A tibble: 83 × 5
##    sleep_total sleep_rem sleep_cycle  brainwt  bodywt
##          <dbl>     <dbl>       <dbl>    <dbl>   <dbl>
##  1        12.1      NA        NA     NA        50    
##  2        17         1.8      NA      0.0155    0.48 
##  3        14.4       2.4      NA     NA         1.35 
##  4        14.9       2.3       0.133  0.00029   0.019
##  5         4         0.7       0.667  0.423   600    
##  6        14.4       2.2       0.767 NA         3.85 
##  7         8.7       1.4       0.383 NA        20.5  
##  8         7        NA        NA     NA         0.045
##  9        10.1       2.9       0.333  0.07     14    
## 10         3        NA        NA      0.0982   14.8  
## # … with 73 more rows

Challenge

Use select(match()) to find columns whose names include either “sleep” or “wt.”

Select the columns that start with “b”

msleep %>%
  dplyr::select(starts_with("b"))

## # A tibble: 83 × 2
##     brainwt  bodywt
##       <dbl>   <dbl>
##  1 NA        50    
##  2  0.0155    0.48 
##  3 NA         1.35 
##  4  0.00029   0.019
##  5  0.423   600    
##  6 NA         3.85 
##  7 NA        20.5  
##  8 NA         0.045
##  9  0.07     14    
## 10  0.0982   14.8  
## # … with 73 more rows

Select the columns that end with “wt”

msleep %>%
  dplyr::select(ends_with("wt"))

## # A tibble: 83 × 2
##     brainwt  bodywt
##       <dbl>   <dbl>
##  1 NA        50    
##  2  0.0155    0.48 
##  3 NA         1.35 
##  4  0.00029   0.019
##  5  0.423   600    
##  6 NA         3.85 
##  7 NA        20.5  
##  8 NA         0.045
##  9  0.07     14    
## 10  0.0982   14.8  
## # … with 73 more rows

Select the columns using both beginning and end string patterns

The key idea is you can use Boolean operators (!, &, |)to combine different string pattern matching statements.

msleep %>%
  dplyr::select(starts_with("b") & ends_with("wt"))

## # A tibble: 83 × 2
##     brainwt  bodywt
##       <dbl>   <dbl>
##  1 NA        50    
##  2  0.0155    0.48 
##  3 NA         1.35 
##  4  0.00029   0.019
##  5  0.423   600    
##  6 NA         3.85 
##  7 NA        20.5  
##  8 NA         0.045
##  9  0.07     14    
## 10  0.0982   14.8  
## # … with 73 more rows

Select the order and move it before everything

# By specifying a column
msleep %>%
  dplyr::select(order, everything())

## # A tibble: 83 × 11
##    order  name  genus vore  conservation sleep_total sleep_rem sleep_cycle awake
##    <chr>  <chr> <chr> <chr> <chr>              <dbl>     <dbl>       <dbl> <dbl>
##  1 Carni… Chee… Acin… carni lc                  12.1      NA        NA      11.9
##  2 Prima… Owl … Aotus omni  <NA>                17         1.8      NA       7  
##  3 Roden… Moun… Aplo… herbi nt                  14.4       2.4      NA       9.6
##  4 Soric… Grea… Blar… omni  lc                  14.9       2.3       0.133   9.1
##  5 Artio… Cow   Bos   herbi domesticated         4         0.7       0.667  20  
##  6 Pilosa Thre… Brad… herbi <NA>                14.4       2.2       0.767   9.6
##  7 Carni… Nort… Call… carni vu                   8.7       1.4       0.383  15.3
##  8 Roden… Vesp… Calo… <NA>  <NA>                 7        NA        NA      17  
##  9 Carni… Dog   Canis carni domesticated        10.1       2.9       0.333  13.9
## 10 Artio… Roe … Capr… herbi lc                   3        NA        NA      21  
## # … with 73 more rows, and 2 more variables: brainwt <dbl>, bodywt <dbl>
…
## [1] "name"  "order"

Select the variables named in character + number pattern

msleep$week8 <- NA

msleep$week12 <- NA

msleep$week_extra <- 0

msleep %>%
  dplyr::select(num_range("week", c(1:12)))

## # A tibble: 83 × 2
##    week8 week12
##    <lgl> <lgl> 
##  1 NA    NA    
##  2 NA    NA    
##  3 NA    NA    
##  4 NA    NA    
##  5 NA    NA    
##  6 NA    NA    
##  7 NA    NA    
##  8 NA    NA    
##  9 NA    NA    
## 10 NA    NA    
## # … with 73 more rows
…
add_tally() = mutate(n = n())

Challenge

What does n in the below example represent?

gapminder %>%
  dplyr::select(continent, country) %>%
  add_tally()

## # A tibble: 1,704 × 3
##    continent country         n
##    <fct>     <fct>       <int>
##  1 Asia      Afghanistan  1704
##  2 Asia      Afghanistan  1704
##  3 Asia      Afghanistan  1704
##  4 Asia      Afghanistan  1704
##  5 Asia      Afghanistan  1704
##  6 Asia      Afghanistan  1704
##  7 Asia      Afghanistan  1704
##  8 Asia      Afghanistan  1704
##  9 Asia      Afghanistan  1704
## 10 Asia      Afghanistan  1704
## # … with 1,694 more rows

add_count

Add count as a column.

# Add count as a column
gapminder %>%
  group_by(continent) %>%
  add_count(year)

## # A tibble: 1,704 × 7
## # Groups:   continent [5]
##    country     continent  year lifeExp      pop gdpPercap     n
##    <fct>       <fct>     <int>   <dbl>    <int>     <dbl> <int>
##  1 Afghanistan Asia       1952    28.8  8425333      779.    33
##  2 Afghanistan Asia       1957    30.3  9240934      821.    33
##  3 Afghanistan Asia       1962    32.0 10267083      853.    33
##  4 Afghanistan Asia       1967    34.0 11537966      836.    33
##  5 Afghanistan Asia       1972    36.1 13079460      740.    33
##  6 Afghanistan Asia       1977    38.4 14880372      786.    33
##  7 Afghanistan Asia       1982    39.9 12881816      978.    33
##  8 Afghanistan Asia       1987    40.8 13867957      852.    33
##  9 Afghanistan Asia       1992    41.7 16317921      649.    33
## 10 Afghanistan Asia       1997    41.8 22227415      635.    33
## # … with 1,694 more rows

Challenge

Do cases 1 and 2 in the below code chunk produce the same outputs? If so, why?

# Case 1
gapminder %>%
  group_by(continent, year) %>%
  count()

## # A tibble: 60 × 3
## # Groups:   continent, year [60]
##    continent  year     n
##    <fct>     <int> <int>
##  1 Africa     1952    52
##  2 Africa     1957    52
##  3 Africa     1962    52
##  4 Africa     1967    52
##  5 Africa     1972    52
##  6 Africa     1977    52
##  7 Africa     1982    52
##  8 Africa     1987    52
##  9 Africa     1992    52
## 10 Africa     1997    52
## # … with 50 more rows

# Case 2
gapminder %>%
  group_by(continent) %>%
  count(year)

## # A tibble: 60 × 3
## # Groups:   continent [5]
##    continent  year     n
##    <fct>     <int> <int>
##  1 Africa     1952    52
##  2 Africa     1957    52
##  3 Africa     1962    52
##  4 Africa     1967    52
##  5 Africa     1972    52
##  6 Africa     1977    52
##  7 Africa     1982    52
##  8 Africa     1987    52
##  9 Africa     1992    52
## 10 Africa     1997    52
## # … with 50 more rows
…
wide_gapminder %>%
  summarise(across(contains("life"),
    mean,
    na.rm = TRUE
  ))

## # A tibble: 1 × 1
##   lifeExp
##     <dbl>
## 1    71.9

wide_gapminder %>%
  summarise(across(contains("A", ignore.case = FALSE)))

## # A tibble: 360 × 2
##    Albania Austria
##      <dbl>   <dbl>
##  1   1601.      NA
##  2   1942.      NA
##  3   2313.      NA
##  4   2760.      NA
##  5   3313.      NA
##  6   3533.      NA
##  7   3631.      NA
##  8   3739.      NA
##  9   2497.      NA
## 10   3193.      NA
## # … with 350 more rows
…
Anti Join

anti_join() does the opposite. Exclude the rows that were matched between the two tables. A great technique to filter stopwords when you do computational text analysis.

flights %>%
  anti_join(planes, by = "tailnum") %>%
  count(tailnum, sort = TRUE)

## # A tibble: 722 × 2
##    tailnum     n
##    <chr>   <int>
##  1 <NA>     2512
##  2 N725MQ    575
##  3 N722MQ    513
##  4 N723MQ    507
##  5 N713MQ    483
##  6 N735MQ    396
##  7 N0EGMQ    371
##  8 N534MQ    364
##  9 N542MQ    363
## 10 N531MQ    349
## # … with 712 more rows
…
# Pull p.value 
glanced$glance %>% pluck(1) %>% pull(p.value)

##        value 
## 9.835213e-08

unnest() unpacks the list objects stored in the glanced column

glanced %>%
  unnest(glance) %>%
  arrange(r.squared) 

## # A tibble: 142 × 16
## # Groups:   country, continent [142]
##    country    continent data      models r.squared adj.r.squared sigma statistic
##    <fct>      <fct>     <list>    <list>     <dbl>         <dbl> <dbl>     <dbl>
##  1 Rwanda     Africa    <tibble … <lm>      0.0172      -0.0811   6.56     0.175
##  2 Botswana   Africa    <tibble … <lm>      0.0340      -0.0626   6.11     0.352
##  3 Zimbabwe   Africa    <tibble … <lm>      0.0562      -0.0381   7.21     0.596
##  4 Zambia     Africa    <tibble … <lm>      0.0598      -0.0342   4.53     0.636
##  5 Swaziland  Africa    <tibble … <lm>      0.0682      -0.0250   6.64     0.732
##  6 Lesotho    Africa    <tibble … <lm>      0.0849      -0.00666  5.93     0.927
##  7 Cote d'Iv… Africa    <tibble … <lm>      0.283        0.212    3.93     3.95 
##  8 South Afr… Africa    <tibble … <lm>      0.312        0.244    4.74     4.54 
##  9 Uganda     Africa    <tibble … <lm>      0.342        0.276    3.19     5.20 
## 10 Congo, De… Africa    <tibble … <lm>      0.348        0.283    2.43     5.34 
## # … with 132 more rows, and 8 more variables: p.value <dbl>, df <dbl>,
## #   logLik <dbl>, AIC <dbl>, BIC <dbl>, deviance <dbl>, df.residual <int>,
## #   nobs <int>
…
# the shaded area is the standard error for the line

4.10.5 Univariate distribution

geom_histogram(): For the probability distribution of a continuous variable. Bins divide the entire range of values into a series of intervals (see the Wiki entry).

geom_density(): Also for the probability distribution of a continuous variable. It calculates a kernel density estimate of the underlying distribution.

4.10.5.1 Histogram

data(midwest) # load midwest dataset

midwest

## # A tibble: 437 × 28
##      PID county  state  area poptotal popdensity popwhite popblack popamerindian
##    <int> <chr>   <chr> <dbl>    <int>      <dbl>    <int>    <int>         <int>
##  1   561 ADAMS   IL    0.052    66090      1271.    63917     1702            98
##  2   562 ALEXAN… IL    0.014    10626       759      7054     3496            19
##  3   563 BOND    IL    0.022    14991       681.    14477      429            35
##  4   564 BOONE   IL    0.017    30806      1812.    29344      127            46
##  5   565 BROWN   IL    0.018     5836       324.     5264      547            14
##  6   566 BUREAU  IL    0.05     35688       714.    35157       50            65
##  7   567 CALHOUN IL    0.017     5322       313.     5298        1             8
##  8   568 CARROLL IL    0.027    16805       622.    16519      111            30
##  9   569 CASS    IL    0.024    13437       560.    13384       16             8
## 10   570 CHAMPA… IL    0.058   173025      2983.   146506    16559           331
## # … with 427 more rows, and 19 more variables: popasian <int>, popother <int>,
## #   percwhite <dbl>, percblack <dbl>, percamerindan <dbl>, percasian <dbl>,
## #   percother <dbl>, popadults <int>, perchsd <dbl>, percollege <dbl>,
## #   percprof <dbl>, poppovertyknown <int>, percpovertyknown <dbl>,
## #   percbelowpoverty <dbl>, percchildbelowpovert <dbl>, percadultpoverty <dbl>,
## #   percelderlypoverty <dbl>, inmetro <int>, category <chr>
…
