4.7 Visualizing (ggplot2) | Computational Thinking for Social Scientists
…
# the shaded area is the standard error for the line

4.7.5 Univariate distribution

geom_histogram(): For the probability distribution of a continuous variable. Bins divide the entire range of values into a series of intervals (see the Wiki entry).

geom_density(): Also for the probability distribution of a continuous variable. It calculates a kernel density estimate of the underlying distribution.

4.7.5.1 Histogram

data(midwest) # load midwest dataset

midwest

## # A tibble: 437 × 28
##      PID county  state  area poptotal popdensity popwhite popblack popamerindian
##    <int> <chr>   <chr> <dbl>    <int>      <dbl>    <int>    <int>         <int>
##  1   561 ADAMS   IL    0.052    66090      1271.    63917     1702            98
##  2   562 ALEXAN… IL    0.014    10626       759      7054     3496            19
##  3   563 BOND    IL    0.022    14991       681.    14477      429            35
##  4   564 BOONE   IL    0.017    30806      1812.    29344      127            46
##  5   565 BROWN   IL    0.018     5836       324.     5264      547            14
##  6   566 BUREAU  IL    0.05     35688       714.    35157       50            65
##  7   567 CALHOUN IL    0.017     5322       313.     5298        1             8
##  8   568 CARROLL IL    0.027    16805       622.    16519      111            30
##  9   569 CASS    IL    0.024    13437       560.    13384       16             8
## 10   570 CHAMPA… IL    0.058   173025      2983.   146506    16559           331
## # ℹ 427 more rows
## # ℹ 19 more variables: popasian <int>, popother <int>, percwhite <dbl>,
## #   percblack <dbl>, percamerindan <dbl>, percasian <dbl>, percother <dbl>,
## #   popadults <int>, perchsd <dbl>, percollege <dbl>, percprof <dbl>,
## #   poppovertyknown <int>, percpovertyknown <dbl>, percbelowpoverty <dbl>,
## #   percchildbelowpovert <dbl>, percadultpoverty <dbl>,
## #   percelderlypoverty <dbl>, inmetro <int>, category <chr>
…
geom_line joins up all the lines for each particular year in the order they appear in the dataset. ggplot2 does not know the yearly observations in your data are grouped by country.

You need grouping when the grouping information you need to tell is not built into the mapped variables (like continent).

gapminder

## # A tibble: 1,704 × 6
##    country     continent  year lifeExp      pop gdpPercap
##    <fct>       <fct>     <int>   <dbl>    <int>     <dbl>
##  1 Afghanistan Asia       1952    28.8  8425333      779.
##  2 Afghanistan Asia       1957    30.3  9240934      821.
##  3 Afghanistan Asia       1962    32.0 10267083      853.
##  4 Afghanistan Asia       1967    34.0 11537966      836.
##  5 Afghanistan Asia       1972    36.1 13079460      740.
##  6 Afghanistan Asia       1977    38.4 14880372      786.
##  7 Afghanistan Asia       1982    39.9 12881816      978.
##  8 Afghanistan Asia       1987    40.8 13867957      852.
##  9 Afghanistan Asia       1992    41.7 16317921      649.
## 10 Afghanistan Asia       1997    41.8 22227415      635.
## # ℹ 1,694 more rows
…
