Document term frequency in R
…
Explore the results with ggplot2

# tidy  
tidy_text <- tidy(topic_model)

tidy_text

## # A tibble: 26,780 x 3
##    topic term      beta
##    <int> <chr>    <dbl>
##  1     1 -call 1.67e-22
##  2     2 -call 6.55e-61
##  3     3 -call 1.20e- 4
##  4     4 -call 1.37e- 4
##  5     5 -call 2.38e-53
##  6     1 -day  1.08e- 4
##  7     2 -day  2.63e-37
##  8     3 -day  1.14e-42
##  9     4 -day  1.46e- 4
## 10     5 -day  2.68e-29
## # ... with 26,770 more rows
…
